{
  "说明": "SDK 各类方法返回结果示例",

  "配置访问方法返回示例": {
    "getLabelsConfig()": {
      "version": "1.0",
      "name": "游戏王卡片数据库",
      "id": "ygopro_cards",
      "database": {
        "type": "sqlite",
        "path": "./cards.cdb",
        "tables": [
          { "name": "texts", "alias": "t" },
          { "name": "datas", "alias": "d" }
        ]
      },
      "mappings": [
        {
          "id": "name",
          "name": "名称",
          "value": "t.name"
        },
        {
          "id": "atk",
          "name": "攻击力",
          "description": "怪兽卡的攻击力数值",
          "condition": "d.type & 1 = 1",
          "value": "d.atk",
          "range": { "min": 0, "max": 5000 }
        }
      ]
    },

    "getDatabaseConfig()": {
      "type": "sqlite",
      "path": "./cards.cdb",
      "tables": [
        { "name": "texts", "alias": "t" },
        { "name": "datas", "alias": "d" }
      ]
    },

    "getDatabasePath()": "/path/to/project/node_modules/lsm-ygopro-database/cards.cdb",

    "getLabelMappings()": [
      {
        "id": "name",
        "name": "名称",
        "value": "t.name"
      },
      {
        "id": "atk",
        "name": "攻击力",
        "description": "怪兽卡的攻击力数值",
        "condition": "d.type & 1 = 1",
        "value": "d.atk",
        "range": { "min": 0, "max": 5000 }
      },
      {
        "id": "attribute",
        "name": "属性",
        "items": [
          { "condition": "d.attribute = 1", "value": "地" },
          { "condition": "d.attribute = 2", "value": "水" },
          { "condition": "d.attribute = 4", "value": "炎" },
          { "condition": "d.attribute = 8", "value": "风" },
          { "condition": "d.attribute = 16", "value": "光" },
          { "condition": "d.attribute = 32", "value": "暗" }
        ]
      }
    ],

    "getExtensions()": [
      {
        "id": "race",
        "name": "种族",
        "items": [
          { "condition": "d.race & 1 = 1", "value": "战士族" },
          { "condition": "d.race & 2 = 2", "value": "魔法师族" },
          { "condition": "d.race & 4 = 4", "value": "天使族" }
        ]
      }
    ],

    "getLabelMappingById('atk')": {
      "id": "atk",
      "name": "攻击力",
      "description": "怪兽卡的攻击力数值",
      "condition": "d.type & 1 = 1",
      "value": "d.atk",
      "range": { "min": 0, "max": 5000 }
    },

    "getExtensionById('race')": {
      "id": "race",
      "name": "种族",
      "items": [
        { "condition": "d.race & 1 = 1", "value": "战士族" },
        { "condition": "d.race & 2 = 2", "value": "魔法师族" },
        { "condition": "d.race & 4 = 4", "value": "天使族" }
      ]
    },

    "getConfigDir()": "/path/to/project/node_modules/lsm-ygopro-database",

    "getLabelsYamlContent()": "version: \"1.0\"\nname: 游戏王卡片数据库\nid: ygopro_cards\ndatabase:\n  type: sqlite\n  path: ./cards.cdb\n..."
  },

  "query() 方法返回示例": {
    "自然语言查询结果": {
      "data": [
        {
          "id": 1234,
          "name": "青眼白龙",
          "desc": "以高攻击力著称的传说之龙。",
          "type": 17,
          "atk": 3000,
          "def": 2500,
          "level": 8,
          "race": 1,
          "attribute": 16
        },
        {
          "id": 5678,
          "name": "黑魔术师",
          "desc": "作为魔法师，攻击力·守备力都是最高的。",
          "type": 17,
          "atk": 2500,
          "def": 2100,
          "level": 7,
          "race": 2,
          "attribute": 32
        }
      ],
      "total": 156,
      "page": 1,
      "pageSize": 20,
      "totalPages": 8,
      "sql": "SELECT d.id, t.name, t.desc, d.type, d.atk, d.def, d.level, d.race, d.attribute FROM datas d INNER JOIN texts t ON d.id = t.id WHERE d.atk > 2000 AND d.type & 1 = 1 LIMIT 20",
      "explanation": "查找攻击力大于2000的怪兽卡",
      "extra": null,
      "extensions": [
        {
          "id": "attribute",
          "name": "属性",
          "values": ["光", "暗"]
        }
      ]
    },

    "id+values 筛选结果": {
      "data": [
        {
          "id": 9876,
          "name": "真红眼黑龙",
          "type": 17,
          "atk": 2400,
          "def": 2000,
          "attribute": 32
        }
      ],
      "total": 23,
      "page": 1,
      "pageSize": 20,
      "totalPages": 2,
      "sql": "SELECT d.id, t.name, t.desc, d.type, d.atk, d.def, d.level, d.race, d.attribute FROM datas d INNER JOIN texts t ON d.id = t.id WHERE d.attribute = 32 AND d.atk >= 2000 AND d.type & 1 = 1 LIMIT 20",
      "explanation": null,
      "extra": null,
      "extensions": [
        {
          "id": "attribute",
          "name": "属性",
          "values": ["暗"]
        }
      ]
    },

    "带 extra 字段的结果": {
      "data": [
        {
          "id": 1234,
          "name": "青眼白龙",
          "atk": 3000
        }
      ],
      "total": 1,
      "page": 1,
      "pageSize": 20,
      "totalPages": 1,
      "sql": "SELECT d.id, t.name, d.atk FROM datas d INNER JOIN texts t ON d.id = t.id WHERE d.id = 1234",
      "explanation": "查找青眼白龙这张卡",
      "extra": {
        "analysis": "这是一张经典的高攻击力龙族怪兽卡",
        "rating": "S",
        "suggestions": ["可以配合龙之灵庙使用"]
      },
      "extensions": []
    }
  }
}
